testbench_alterado.vcd
$date
	Thu Sep 26 23:51:45 2024
$end
$version
	ModelSim Version 10.1d
$end
$timescale
	1ps
$end
$scope module testbench_alterado $end
$var reg 1 ! reset $end
$var reg 1 " clk $end
$var reg 2 # H_in1 [1:0] $end
$var reg 4 $ H_in0 [3:0] $end
$var reg 4 % M_in1 [3:0] $end
$var reg 4 & M_in0 [3:0] $end
$var reg 1 ' LD_time $end
$var wire 1 ( H_out1 [1] $end
$var wire 1 ) H_out1 [0] $end
$var wire 1 * H_out0 [3] $end
$var wire 1 + H_out0 [2] $end
$var wire 1 , H_out0 [1] $end
$var wire 1 - H_out0 [0] $end
$var wire 1 . M_out1 [3] $end
$var wire 1 / M_out1 [2] $end
$var wire 1 0 M_out1 [1] $end
$var wire 1 1 M_out1 [0] $end
$var wire 1 2 M_out0 [3] $end
$var wire 1 3 M_out0 [2] $end
$var wire 1 4 M_out0 [1] $end
$var wire 1 5 M_out0 [0] $end
$var wire 1 6 S_out1 [3] $end
$var wire 1 7 S_out1 [2] $end
$var wire 1 8 S_out1 [1] $end
$var wire 1 9 S_out1 [0] $end
$var wire 1 : S_out0 [3] $end
$var wire 1 ; S_out0 [2] $end
$var wire 1 < S_out0 [1] $end
$var wire 1 = S_out0 [0] $end
$var wire 1 > alt_H_out1 [1] $end
$var wire 1 ? alt_H_out1 [0] $end
$var wire 1 @ alt_H_out0 [3] $end
$var wire 1 A alt_H_out0 [2] $end
$var wire 1 B alt_H_out0 [1] $end
$var wire 1 C alt_H_out0 [0] $end
$var wire 1 D alt_M_out1 [3] $end
$var wire 1 E alt_M_out1 [2] $end
$var wire 1 F alt_M_out1 [1] $end
$var wire 1 G alt_M_out1 [0] $end
$var wire 1 H alt_M_out0 [3] $end
$var wire 1 I alt_M_out0 [2] $end
$var wire 1 J alt_M_out0 [1] $end
$var wire 1 K alt_M_out0 [0] $end
$var wire 1 L alt_S_out1 [3] $end
$var wire 1 M alt_S_out1 [2] $end
$var wire 1 N alt_S_out1 [1] $end
$var wire 1 O alt_S_out1 [0] $end
$var wire 1 P alt_S_out0 [3] $end
$var wire 1 Q alt_S_out0 [2] $end
$var wire 1 R alt_S_out0 [1] $end
$var wire 1 S alt_S_out0 [0] $end
$scope module DUT $end
$var wire 1 T reset $end
$var wire 1 U clk $end
$var wire 1 V H_in1 [1] $end
$var wire 1 W H_in1 [0] $end
$var wire 1 X H_in0 [3] $end
$var wire 1 Y H_in0 [2] $end
$var wire 1 Z H_in0 [1] $end
$var wire 1 [ H_in0 [0] $end
$var wire 1 \ M_in1 [3] $end
$var wire 1 ] M_in1 [2] $end
$var wire 1 ^ M_in1 [1] $end
$var wire 1 _ M_in1 [0] $end
$var wire 1 ` M_in0 [3] $end
$var wire 1 a M_in0 [2] $end
$var wire 1 b M_in0 [1] $end
$var wire 1 c M_in0 [0] $end
$var wire 1 d LD_time $end
$var wire 1 ( H_out1 [1] $end
$var wire 1 ) H_out1 [0] $end
$var wire 1 * H_out0 [3] $end
$var wire 1 + H_out0 [2] $end
$var wire 1 , H_out0 [1] $end
$var wire 1 - H_out0 [0] $end
$var wire 1 . M_out1 [3] $end
$var wire 1 / M_out1 [2] $end
$var wire 1 0 M_out1 [1] $end
$var wire 1 1 M_out1 [0] $end
$var wire 1 2 M_out0 [3] $end
$var wire 1 3 M_out0 [2] $end
$var wire 1 4 M_out0 [1] $end
$var wire 1 5 M_out0 [0] $end
$var wire 1 6 S_out1 [3] $end
$var wire 1 7 S_out1 [2] $end
$var wire 1 8 S_out1 [1] $end
$var wire 1 9 S_out1 [0] $end
$var wire 1 : S_out0 [3] $end
$var wire 1 ; S_out0 [2] $end
$var wire 1 < S_out0 [1] $end
$var wire 1 = S_out0 [0] $end
$var reg 2 e alt_H_out1 [1:0] $end
$var reg 4 f alt_H_out0 [3:0] $end
$var reg 4 g alt_M_out1 [3:0] $end
$var reg 4 h alt_M_out0 [3:0] $end
$var reg 4 i alt_S_out1 [3:0] $end
$var reg 4 j alt_S_out0 [3:0] $end
$var reg 1 k clk_1s $end
$var reg 4 l tmp_1s [3:0] $end
$var reg 6 m tmp_h [5:0] $end
$var reg 6 n tmp_m [5:0] $end
$var reg 6 o tmp_s [5:0] $end
$var reg 2 p c_h1 [1:0] $end
$var reg 4 q c_h0 [3:0] $end
$var reg 4 r c_m1 [3:0] $end
$var reg 4 s c_m0 [3:0] $end
$var reg 4 t c_s1 [3:0] $end
$var reg 4 u c_s0 [3:0] $end
$var reg 5 v display_timer [4:0] $end
$var reg 2 w display_modo [1:0] $end
$var wire 1 x cd_m_out [9] $end
$var wire 1 y cd_m_out [8] $end
$var wire 1 z cd_m_out [7] $end
$var wire 1 { cd_m_out [6] $end
$var wire 1 | cd_m_out [5] $end
$var wire 1 } cd_m_out [4] $end
$var wire 1 ~ cd_m_out [3] $end
$var wire 1 !! cd_m_out [2] $end
$var wire 1 "! cd_m_out [1] $end
$var wire 1 #! cd_m_out [0] $end
$var wire 1 $! cd_s_out [9] $end
$var wire 1 %! cd_s_out [8] $end
$var wire 1 &! cd_s_out [7] $end
$var wire 1 '! cd_s_out [6] $end
$var wire 1 (! cd_s_out [5] $end
$var wire 1 )! cd_s_out [4] $end
$var wire 1 *! cd_s_out [3] $end
$var wire 1 +! cd_s_out [2] $end
$var wire 1 ,! cd_s_out [1] $end
$var wire 1 -! cd_s_out [0] $end
$var wire 1 .! reset_cd_m $end
$var wire 1 /! reset_cd_s $end
$scope module cd_m $end
$var wire 1 0! CLK $end
$var wire 1 .! RESET $end
$var wire 1 x OUT [9] $end
$var wire 1 y OUT [8] $end
$var wire 1 z OUT [7] $end
$var wire 1 { OUT [6] $end
$var wire 1 | OUT [5] $end
$var wire 1 } OUT [4] $end
$var wire 1 ~ OUT [3] $end
$var wire 1 !! OUT [2] $end
$var wire 1 "! OUT [1] $end
$var wire 1 #! OUT [0] $end
$var reg 10 1! counter [9:0] $end
$upscope $end
$scope module cd_s $end
$var wire 1 2! CLK $end
$var wire 1 /! RESET $end
$var wire 1 $! OUT [9] $end
$var wire 1 %! OUT [8] $end
$var wire 1 &! OUT [7] $end
$var wire 1 '! OUT [6] $end
$var wire 1 (! OUT [5] $end
$var wire 1 )! OUT [4] $end
$var wire 1 *! OUT [3] $end
$var wire 1 +! OUT [2] $end
$var wire 1 ,! OUT [1] $end
$var wire 1 -! OUT [0] $end
$var reg 10 3! counter [9:0] $end
$upscope $end
$upscope $end
$upscope $end
$enddefinitions $end
#0
$dumpvars
1!
0"
b0 #
b0 $
b0 %
b0 &
0'
b0 e
b0 f
b0 g
b0 h
b0 i
b0 j
0k
b0 l
b0 m
b0 n
b0 o
b0 p
b0 q
b1 r
b110 s
b1 t
b110 u
b0 v
b0 w
b1 1!
b1 3!
0)
0(
0-
0,
0+
0*
11
00
0/
0.
05
14
13
02
19
08
07
06
0=
1<
1;
0:
0?
0>
0C
0B
0A
0@
0G
0F
0E
0D
0K
0J
0I
0H
0O
0N
0M
0L
0S
0R
0Q
0P
1#!
0"!
0!!
0~
0}
0|
0{
0z
0y
0x
1-!
0,!
0+!
0*!
0)!
0(!
0'!
0&!
0%!
0$!
0.!
0/!
0d
0c
0b
0a
0`
0_
0^
0]
0\
0[
0Z
0Y
0X
0W
0V
0U
1T
02!
00!
$end
#5000
1"
1U
#10000
0"
0U
#15000
1"
1U
#20000
0!
0"
0T
0U
#25000
1"
1U
b1 l
#30000
b1 #
b10 $
b11 %
b100 &
1'
0"
1a
1_
1^
1Z
1W
1d
0U
#35000
1"
1U
b10 l
#40000
0'
0"
0d
0U
#45000
1"
1U
b11 l
#50000
0"
0U
#55000
1"
1U
b100 l
#60000
0"
0U
#65000
1"
1U
b101 l
#70000
0"
0U
#75000
1"
1U
b110 l
#80000
0"
0U
#85000
1"
1U
b111 l
1k
10!
12!
b10 3!
b10 1!
b1 o
b1 v
b1 i
b110 j
1R
1Q
1O
0#!
1"!
0-!
1,!
b10 r
b10 t
b1100 s
b1101 u
1=
0<
1:
04
12
09
18
01
10
#90000
0"
0U
#95000
1"
1U
b1000 l
#100000
0"
0U
#105000
1"
1U
b1001 l
#110000
0"
0U
#115000
1"
1U
b1010 l
#120000
0"
0U
#125000
1"
1U
b1011 l
b1 l
#130000
0"
0U
#135000
1"
1U
b10 l
0k
00!
02!
#140000
0"
0U
#145000
1"
1U
b11 l
#150000
0"
0U
#155000
1"
1U
b100 l
#160000
0"
0U
#165000
1"
1U
b101 l
#170000
0"
0U
#175000
1"
1U
b110 l
#180000
0"
0U
#185000
1"
1U
b111 l
1k
10!
12!
b100 3!
b100 1!
b10 o
b10 v
b10 i
b1101 j
1S
0R
1P
0O
1N
0"!
1!!
0,!
1+!
b11 r
b11 t
b10 s
b100 u
0=
0:
14
03
02
19
11
#190000
0"
0U
#195000
1"
1U
b1000 l
#200000
0"
0U
#205000
1"
1U
b1001 l
#210000
0"
0U
#215000
1"
1U
b1010 l
#220000
0"
0U
#225000
1"
1U
b1011 l
b1 l
#230000
0"
0U
#235000
1"
1U
b10 l
0k
00!
02!
#240000
0"
0U
#245000
1"
1U
b11 l
#250000
0"
0U
#255000
1"
1U
b100 l
#260000
0"
0U
#265000
1"
1U
b101 l
#270000
0"
0U
#275000
1"
1U
b110 l
#280000
0"
0U
#285000
1"
1U
b111 l
1k
10!
12!
b1000 3!
b1000 1!
b11 o
b11 v
b11 i
b100 j
0S
0P
1O
0!!
1~
0+!
1*!
b100 r
b100 t
b1000 s
b1011 u
1=
1<
0;
1:
04
12
09
08
17
01
00
1/
#290000
0"
0U
#295000
1"
1U
b1000 l
#300000
0"
0U
#305000
1"
1U
b1001 l
#310000
0"
0U
#315000
1"
1U
b1010 l
#320000
0"
0U
#325000
1"
1U
b1011 l
b1 l
#330000
0"
0U
#335000
1"
1U
b10 l
0k
00!
02!
#340000
0"
0U
#345000
1"
1U
b11 l
#350000
0"
0U
#355000
1"
1U
b100 l
#360000
0"
0U
#365000
1"
1U
b101 l
#370000
0"
0U
#375000
1"
1U
b110 l
#380000
0"
0U
#385000
1"
1U
b111 l
1k
10!
12!
b10000 3!
b10000 1!
b100 o
b100 v
b100 i
b1011 j
1S
1R
0Q
1P
0O
0N
1M
0~
1}
0*!
1)!
b101 r
b101 t
b1110 s
b10 u
0=
0:
14
13
19
11
#390000
0"
0U
#395000
1"
1U
b1000 l
#400000
0"
0U
#405000
1"
1U
b1001 l
#410000
0"
0U
#415000
1"
1U
b1010 l
#420000
0"
0U
#425000
1"
1U
b1011 l
b1 l
#430000
0"
0U
#435000
1"
1U
b10 l
0k
00!
02!
#440000
0"
0U
#445000
1"
1U
b11 l
#450000
0"
0U
#455000
1"
1U
b100 l
#460000
0"
0U
#465000
1"
1U
b101 l
#470000
0"
0U
#475000
1"
1U
b110 l
#480000
0"
0U
#485000
1"
1U
b111 l
1k
10!
12!
b100000 3!
b100000 1!
b101 o
b101 v
b101 i
b10 j
0S
0P
1O
0}
1|
0)!
1(!
1.!
1/!
b0 r
b0 t
b0 s
b101 u
1=
0<
1;
04
03
02
09
07
01
0/
b1 3!
b1 1!
1#!
0|
1-!
0(!
0.!
0/!
b1 r
b1 t
b110 s
b1011 u
1<
0;
1:
14
13
19
11
#490000
0"
0U
#495000
1"
1U
b1000 l
#500000
0"
0U
#505000
1"
1U
b1001 l
#510000
0"
0U
#515000
1"
1U
b1010 l
#520000
0"
0U
#525000
1"
1U
b1011 l
b1 l
#530000
0"
0U
#535000
1"
1U
b10 l
0k
00!
02!
#540000
0"
0U
#545000
1"
1U
b11 l
#550000
0"
0U
#555000
1"
1U
b100 l
#560000
0"
0U
#565000
1"
1U
b101 l
#570000
0"
0U
#575000
1"
1U
b110 l
#580000
0"
0U
#585000
1"
1U
b111 l
1k
10!
12!
b10 3!
b10 1!
b110 o
b110 v
b1 i
b1011 j
1S
1P
0M
0#!
1"!
0-!
1,!
b10 r
b10 t
b1100 s
b10 u
0=
0:
04
12
09
18
01
10
#590000
0"
0U
#595000
1"
1U
b1000 l
#600000
0"
0U
#605000
1"
1U
b1001 l
#610000
0"
0U
#615000
1"
1U
b1010 l
#620000
0"
0U
#625000
1"
1U
b1011 l
b1 l
#630000
0"
0U
#635000
1"
1U
b10 l
0k
00!
02!
#640000
0"
0U
#645000
1"
1U
b11 l
#650000
0"
0U
#655000
1"
1U
b100 l
#660000
0"
0U
#665000
1"
1U
b101 l
#670000
0"
0U
#675000
1"
1U
b110 l
#680000
0"
0U
#685000
1"
1U
b111 l
1k
10!
12!
b100 3!
b100 1!
b111 o
b111 v
b10 i
b10 j
0S
0P
0O
1N
0"!
1!!
0,!
1+!
b11 r
b11 t
b10 s
b1001 u
1=
0<
1:
14
03
02
19
11
#690000
0"
0U
#695000
1"
1U
b1000 l
#700000
0"
0U
#705000
1"
1U
b1001 l
#710000
0"
0U
#715000
1"
1U
b1010 l
#720000
0"
0U
#725000
1"
1U
b1011 l
b1 l
#730000
0"
0U
#735000
1"
1U
b10 l
0k
00!
02!
#740000
0"
0U
#745000
1"
1U
b11 l
#750000
0"
0U
#755000
1"
1U
b100 l
#760000
0"
0U
#765000
1"
1U
b101 l
#770000
0"
0U
#775000
1"
1U
b110 l
#780000
0"
0U
#785000
1"
1U
b111 l
1k
10!
12!
b1000 3!
b1000 1!
b1000 o
b1000 v
b11 i
b1001 j
1S
0R
1P
1O
0!!
1~
0+!
1*!
b100 r
b100 t
b1000 s
b0 u
0=
0:
04
12
09
08
17
01
00
1/
#790000
0"
0U
#795000
1"
1U
b1000 l
#800000
0"
0U
#805000
1"
1U
b1001 l
#810000
0"
0U
#815000
1"
1U
b1010 l
#820000
0"
0U
#825000
1"
1U
b1011 l
b1 l
#830000
0"
0U
#835000
1"
1U
b10 l
0k
00!
02!
#840000
0"
0U
#845000
1"
1U
b11 l
#850000
0"
0U
#855000
1"
1U
b100 l
#860000
0"
0U
#865000
1"
1U
b101 l
#870000
0"
0U
#875000
1"
1U
b110 l
#880000
0"
0U
#885000
1"
1U
b111 l
1k
10!
12!
b10000 3!
b10000 1!
b1001 o
b1001 v
b100 i
b0 j
0S
0P
0O
0N
1M
0~
1}
0*!
1)!
b101 r
b101 t
b1110 s
b111 u
1=
1<
1;
14
13
19
11
#890000
0"
0U
#895000
1"
1U
b1000 l
#900000
0"
0U
#905000
1"
1U
b1001 l
#910000
0"
0U
#915000
1"
1U
b1010 l
#920000
0"
0U
#925000
1"
1U
b1011 l
b1 l
#930000
0"
0U
#935000
1"
1U
b10 l
0k
00!
02!
#940000
0"
0U
#945000
1"
1U
b11 l
#950000
0"
0U
#955000
1"
1U
b100 l
#960000
0"
0U
#965000
1"
1U
b101 l
#970000
0"
0U
#975000
1"
1U
b110 l
#980000
0"
0U
#985000
1"
1U
b111 l
1k
10!
12!
b100000 3!
b100000 1!
b1010 o
b1010 v
b101 i
b111 j
1S
1R
1Q
1O
0}
1|
0)!
1(!
1.!
1/!
b0 r
b0 t
b0 s
b1010 u
0=
0;
1:
04
03
02
09
07
01
0/
b1 3!
b1 1!
1#!
0|
1-!
0(!
0.!
0/!
b1 r
b1 t
b110 s
b0 u
0<
0:
14
13
19
11
#990000
0"
0U
#995000
1"
1U
b1000 l
#1000000
0"
0U
#1005000
1"
1U
b1001 l
#1010000
0"
0U
#1015000
1"
1U
b1010 l
#1020000
0"
0U
#1025000
1"
1U
b1011 l
b1 l
#1030000
0"
0U
#1035000
1"
1U
b10 l
0k
00!
02!
#1040000
0"
0U
#1045000
1"
1U
b11 l
#1050000
0"
0U
#1055000
1"
1U
b100 l
#1060000
0"
0U
#1065000
1"
1U
b101 l
#1070000
0"
0U
#1075000
1"
1U
b110 l
#1080000
0"
0U
#1085000
1"
1U
b111 l
1k
10!
12!
b10 3!
b10 1!
b1011 o
b1011 v
b1 i
b0 j
0S
0R
0Q
0M
0#!
1"!
0-!
1,!
b10 r
b10 t
b1100 s
b111 u
1=
1<
1;
04
12
09
18
01
10
#1090000
0"
0U
#1095000
1"
1U
b1000 l
#1100000
0"
0U
#1105000
1"
1U
b1001 l
#1110000
0"
0U
#1115000
1"
1U
b1010 l
#1120000
0"
0U
#1125000
1"
1U
b1011 l
b1 l
#1130000
0"
0U
#1135000
1"
1U
b10 l
0k
00!
02!
#1140000
0"
0U
#1145000
1"
1U
b11 l
#1150000
0"
0U
#1155000
1"
1U
b100 l
#1160000
0"
0U
#1165000
1"
1U
b101 l
#1170000
0"
0U
#1175000
1"
1U
b110 l
#1180000
0"
0U
#1185000
1"
1U
b111 l
1k
10!
12!
b100 3!
b100 1!
b1100 o
b1100 v
b10 i
b111 j
1S
1R
1Q
0O
1N
0"!
1!!
0,!
1+!
b11 r
b11 t
b10 s
b1110 u
0=
1:
14
03
02
19
11
#1190000
0"
0U
#1195000
1"
1U
b1000 l
#1200000
0"
0U
#1205000
1"
1U
b1001 l
#1210000
0"
0U
#1215000
1"
1U
b1010 l
#1220000
0"
0U
#1225000
1"
1U
b1011 l
b1 l
#1230000
0"
0U
#1235000
1"
1U
b10 l
0k
00!
02!
#1240000
0"
0U
#1245000
1"
1U
b11 l
#1250000
0"
0U
#1255000
1"
1U
b100 l
#1260000
0"
0U
#1265000
1"
1U
b101 l
#1270000
0"
0U
#1275000
1"
1U
b110 l
#1280000
0"
0U
#1285000
1"
1U
b111 l
1k
10!
12!
b1000 3!
b1000 1!
b1101 o
b1101 v
b11 i
b1110 j
0S
1P
1O
0!!
1~
0+!
1*!
b100 r
b100 t
b1000 s
b101 u
1=
0<
0:
04
12
09
08
17
01
00
1/
#1290000
0"
0U
#1295000
1"
1U
b1000 l
#1300000
0"
0U
#1305000
1"
1U
b1001 l
#1310000
0"
0U
#1315000
1"
1U
b1010 l
#1320000
0"
0U
#1325000
1"
1U
b1011 l
b1 l
#1330000
0"
0U
#1335000
1"
1U
b10 l
0k
00!
02!
#1340000
0"
0U
#1345000
1"
1U
b11 l
#1350000
0"
0U
#1355000
1"
1U
b100 l
#1360000
0"
0U
#1365000
1"
1U
b101 l
#1370000
0"
0U
#1375000
1"
1U
b110 l
#1380000
0"
0U
#1385000
1"
1U
b111 l
1k
10!
12!
b10000 3!
b10000 1!
b1110 o
b1110 v
b100 i
b101 j
1S
0R
0P
0O
0N
1M
0~
1}
0*!
1)!
b101 r
b101 t
b1110 s
b1100 u
0=
1:
14
13
19
11
#1390000
0"
0U
#1395000
1"
1U
b1000 l
#1400000
0"
0U
#1405000
1"
1U
b1001 l
#1410000
0"
0U
#1415000
1"
1U
b1010 l
#1420000
0"
0U
#1425000
1"
1U
b1011 l
b1 l
#1430000
0"
0U
#1435000
1"
1U
b10 l
0k
00!
02!
#1440000
0"
0U
#1445000
1"
1U
b11 l
#1450000
0"
0U
#1455000
1"
1U
b100 l
#1460000
0"
0U
#1465000
1"
1U
b101 l
#1470000
0"
0U
#1475000
1"
1U
b110 l
#1480000
0"
0U
#1485000
1"
1U
b111 l
1k
10!
12!
b100000 3!
b100000 1!
b1111 o
b1111 v
b101 i
b1100 j
0S
1P
1O
0}
1|
0)!
1(!
1.!
1/!
b0 r
b0 t
b0 s
b1111 u
1=
1<
04
03
02
09
07
01
0/
b1 3!
b1 1!
1#!
0|
1-!
0(!
0.!
0/!
b1 r
b1 t
b110 s
b101 u
0<
0:
14
13
19
11
#1490000
0"
0U
#1495000
1"
1U
b1000 l
#1500000
0"
0U
#1505000
1"
1U
b1001 l
#1510000
0"
0U
#1515000
1"
1U
b1010 l
#1520000
0"
0U
#1525000
1"
1U
b1011 l
b1 l
#1530000
0"
0U
#1535000
1"
1U
b10 l
0k
00!
02!
#1540000
0"
0U
#1545000
1"
1U
b11 l
#1550000
0"
0U
#1555000
1"
1U
b100 l
#1560000
0"
0U
#1565000
1"
1U
b101 l
#1570000
0"
0U
#1575000
1"
1U
b110 l
#1580000
0"
0U
#1585000
1"
1U
b111 l
1k
10!
12!
b10 3!
b10 1!
b10000 o
b10000 v
b0 v
b1 w
b1 i
b101 j
1S
0P
0M
0#!
1"!
0-!
1,!
b10 r
b10 t
b1100 s
b1100 u
0=
1:
04
12
09
18
01
10
#1590000
0"
0U
#1595000
1"
1U
b1000 l
#1600000
0"
0U
#1605000
1"
1U
b1001 l
#1610000
0"
0U
#1615000
1"
1U
b1010 l
#1620000
0"
0U
#1625000
1"
1U
b1011 l
b1 l
#1630000
0"
0U
#1635000
1"
1U
b10 l
0k
00!
02!
#1640000
0"
0U
#1645000
1"
1U
b11 l
#1650000
0"
0U
#1655000
1"
1U
b100 l
#1660000
0"
0U
#1665000
1"
1U
b101 l
#1670000
0"
0U
#1675000
1"
1U
b110 l
#1680000
0"
0U
#1685000
1"
1U
b111 l
1k
10!
12!
b100 3!
b100 1!
b10001 o
b1 v
b10 g
b1100 h
b0 i
b0 j
0S
0Q
0O
1I
1H
1F
0"!
1!!
0,!
1+!
b11 r
b11 t
b10 s
b11 u
1=
1<
0;
0:
14
03
02
19
11
#1690000
0"
0U
#1695000
1"
1U
b1000 l
#1700000
0"
0U
#1705000
1"
1U
b1001 l
#1710000
0"
0U
#1715000
1"
1U
b1010 l
#1720000
0"
0U
#1725000
1"
1U
b1011 l
b1 l
#1730000
0"
0U
#1735000
1"
1U
b10 l
0k
00!
02!
#1740000
0"
0U
#1745000
1"
1U
b11 l
#1750000
0"
0U
#1755000
1"
1U
b100 l
#1760000
0"
0U
#1765000
1"
1U
b101 l
#1770000
0"
0U
#1775000
1"
1U
b110 l
#1780000
0"
0U
#1785000
1"
1U
b111 l
1k
10!
12!
b1000 3!
b1000 1!
b10010 o
b10 v
b11 g
b10 h
1J
0I
0H
1G
0!!
1~
0+!
1*!
b100 r
b100 t
b1000 s
b1010 u
0=
1:
04
12
09
08
17
01
00
1/
#1790000
0"
0U
#1795000
1"
1U
b1000 l
#1800000
0"
0U
#1805000
1"
1U
b1001 l
#1810000
0"
0U
#1815000
1"
1U
b1010 l
#1820000
0"
0U
#1825000
1"
1U
b1011 l
b1 l
#1830000
0"
0U
#1835000
1"
1U
b10 l
0k
00!
02!
#1840000
0"
0U
#1845000
1"
1U
b11 l
#1850000
0"
0U
#1855000
1"
1U
b100 l
#1860000
0"
0U
#1865000
1"
1U
b101 l
#1870000
0"
0U
#1875000
1"
1U
b110 l
#1880000
0"
0U
#1885000
1"
1U
b111 l
1k
10!
12!
b10000 3!
b10000 1!
b10011 o
b11 v
b100 g
b1000 h
0J
1H
0G
0F
1E
0~
1}
0*!
1)!
b101 r
b101 t
b1110 s
b1 u
1=
0<
0:
14
13
19
11
#1890000
0"
0U
#1895000
1"
1U
b1000 l
#1900000
0"
0U
#1905000
1"
1U
b1001 l
#1910000
0"
0U
#1915000
1"
1U
b1010 l
#1920000
0"
0U
#1925000
1"
1U
b1011 l
b1 l
#1930000
0"
0U
#1935000
1"
1U
b10 l
0k
00!
02!
#1940000
0"
0U
#1945000
1"
1U
b11 l
#1950000
0"
0U
#1955000
1"
1U
b100 l
#1960000
0"
0U
#1965000
1"
1U
b101 l
#1970000
0"
0U
#1975000
1"
1U
b110 l
#1980000
0"
0U
#1985000
1"
1U
b111 l
1k
10!
12!
b100000 3!
b100000 1!
b10100 o
b100 v
b101 g
b1110 h
1J
1I
1G
0}
1|
0)!
1(!
1.!
1/!
b0 r
b0 t
b0 s
b100 u
0=
1;
04
03
02
09
07
01
0/
b1 3!
b1 1!
1#!
0|
1-!
0(!
0.!
0/!
b1 r
b1 t
b110 s
b1010 u
1<
0;
1:
14
13
19
11
#1990000
0"
0U
#1995000
1"
1U
b1000 l
#2000000
0"
0U
#2005000
1"
1U
b1001 l
#2010000
0"
0U
#2015000
1"
1U
b1010 l
#2020000
0"
0U
#2025000
1"
1U
b1011 l
b1 l
#2030000
0"
0U
#2035000
1"
1U
b10 l
0k
00!
02!
#2040000
0"
0U
#2045000
1"
1U
b11 l
#2050000
0"
0U
#2055000
1"
1U
b100 l
#2060000
0"
0U
#2065000
1"
1U
b101 l
#2070000
0"
0U
#2075000
1"
1U
b110 l
#2080000
0"
0U
#2085000
1"
1U
b111 l
1k
10!
12!
b10 3!
b10 1!
b10101 o
b101 v
b1 g
b110 h
0H
0E
0#!
1"!
0-!
1,!
b10 r
b10 t
b1100 s
b1 u
1=
0<
0:
04
12
09
18
01
10
#2090000
0"
0U
#2095000
1"
1U
b1000 l
#2100000
0"
0U
#2105000
1"
1U
b1001 l
#2110000
0"
0U
#2115000
1"
1U
b1010 l
#2120000
0"
0U
#2125000
1"
1U
b1011 l
b1 l
#2130000
0"
0U
#2135000
1"
1U
b10 l
0k
00!
02!
#2140000
0"
0U
#2145000
1"
1U
b11 l
#2150000
0"
0U
#2155000
1"
1U
b100 l
#2160000
0"
0U
#2165000
1"
1U
b101 l
#2170000
0"
0U
#2175000
1"
1U
b110 l
#2180000
0"
0U
#2185000
1"
1U
b111 l
1k
10!
12!
b100 3!
b100 1!
b10110 o
b110 v
b10 g
b1100 h
0J
1H
0G
1F
0"!
1!!
0,!
1+!
b11 r
b11 t
b10 s
b1000 u
0=
1:
14
03
02
19
11
#2190000
0"
0U
#2195000
1"
1U
b1000 l
#2200000
0"
0U
#2205000
1"
1U
b1001 l
#2210000
0"
0U
#2215000
1"
1U
b1010 l
#2220000
0"
0U
#2225000
1"
1U
b1011 l
b1 l
#2230000
0"
0U
#2235000
1"
1U
b10 l
0k
00!
02!
#2240000
0"
0U
#2245000
1"
1U
b11 l
#2250000
0"
0U
#2255000
1"
1U
b100 l
#2260000
0"
0U
#2265000
1"
1U
b101 l
#2270000
0"
0U
#2275000
1"
1U
b110 l
#2280000
0"
0U
#2285000
1"
1U
b111 l
1k
10!
12!
b1000 3!
b1000 1!
b10111 o
b111 v
b11 g
b10 h
1J
0I
0H
1G
0!!
1~
0+!
1*!
b100 r
b100 t
b1000 s
b1111 u
1=
1<
1;
04
12
09
08
17
01
00
1/
#2290000
0"
0U
#2295000
1"
1U
b1000 l
#2300000
0"
0U
#2305000
1"
1U
b1001 l
#2310000
0"
0U
#2315000
1"
1U
b1010 l
#2320000
0"
0U
#2325000
1"
1U
b1011 l
b1 l
#2330000
0"
0U
#2335000
1"
1U
b10 l
0k
00!
02!
#2340000
0"
0U
#2345000
1"
1U
b11 l
#2350000
0"
0U
#2355000
1"
1U
b100 l
#2360000
0"
0U
#2365000
1"
1U
b101 l
#2370000
0"
0U
#2375000
1"
1U
b110 l
#2380000
0"
0U
#2385000
1"
1U
b111 l
1k
10!
12!
b10000 3!
b10000 1!
b11000 o
b1000 v
b100 g
b1000 h
0J
1H
0G
0F
1E
0~
1}
0*!
1)!
b101 r
b101 t
b1110 s
b110 u
0=
0:
14
13
19
11
#2390000
0"
0U
#2395000
1"
1U
b1000 l
#2400000
0"
0U
#2405000
1"
1U
b1001 l
#2410000
0"
0U
#2415000
1"
1U
b1010 l
#2420000
0"
0U
#2425000
1"
1U
b1011 l
b1 l
#2430000
0"
0U
#2435000
1"
1U
b10 l
0k
00!
02!
#2440000
0"
0U
#2445000
1"
1U
b11 l
#2450000
0"
0U
#2455000
1"
1U
b100 l
#2460000
0"
0U
#2465000
1"
1U
b101 l
#2470000
0"
0U
#2475000
1"
1U
b110 l
#2480000
0"
0U
#2485000
1"
1U
b111 l
1k
10!
12!
b100000 3!
b100000 1!
b11001 o
b1001 v
b101 g
b1110 h
1J
1I
1G
0}
1|
0)!
1(!
1.!
1/!
b0 r
b0 t
b0 s
b1001 u
1=
0<
0;
1:
04
03
02
09
07
01
0/
b1 3!
b1 1!
1#!
0|
1-!
0(!
0.!
0/!
b1 r
b1 t
b110 s
b1111 u
1<
1;
14
13
19
11
#2490000
0"
0U
#2495000
1"
1U
b1000 l
#2500000
0"
0U
#2505000
1"
1U
b1001 l
#2510000
0"
0U
#2515000
1"
1U
b1010 l
#2520000
0"
0U
#2525000
1"
1U
b1011 l
b1 l
#2530000
0"
0U
#2535000
1"
1U
b10 l
0k
00!
02!
#2540000
0"
0U
#2545000
1"
1U
b11 l
#2550000
0"
0U
#2555000
1"
1U
b100 l
#2560000
0"
0U
#2565000
1"
1U
b101 l
#2570000
0"
0U
#2575000
1"
1U
b110 l
#2580000
0"
0U
#2585000
1"
1U
b111 l
1k
10!
12!
b10 3!
b10 1!
b11010 o
b1010 v
b1 g
b110 h
0H
0E
0#!
1"!
0-!
1,!
b10 r
b10 t
b1100 s
b110 u
0=
0:
04
12
09
18
01
10
#2590000
0"
0U
#2595000
1"
1U
b1000 l
#2600000
0"
0U
#2605000
1"
1U
b1001 l
#2610000
0"
0U
#2615000
1"
1U
b1010 l
#2620000
0"
0U
#2625000
1"
1U
b1011 l
b1 l
#2630000
0"
0U
#2635000
1"
1U
b10 l
0k
00!
02!
#2640000
0"
0U
#2645000
1"
1U
b11 l
#2650000
0"
0U
#2655000
1"
1U
b100 l
#2660000
0"
0U
#2665000
1"
1U
b101 l
#2670000
0"
0U
#2675000
1"
1U
b110 l
#2680000
0"
0U
#2685000
1"
1U
b111 l
1k
10!
12!
b100 3!
b100 1!
b11011 o
b1011 v
b10 g
b1100 h
0J
1H
0G
1F
0"!
1!!
0,!
1+!
b11 r
b11 t
b10 s
b1101 u
1=
0<
1:
14
03
02
19
11
#2690000
0"
0U
#2695000
1"
1U
b1000 l
#2700000
0"
0U
#2705000
1"
1U
b1001 l
#2710000
0"
0U
#2715000
1"
1U
b1010 l
#2720000
0"
0U
#2725000
1"
1U
b1011 l
b1 l
#2730000
0"
0U
#2735000
1"
1U
b10 l
0k
00!
02!
#2740000
0"
0U
#2745000
1"
1U
b11 l
#2750000
0"
0U
#2755000
1"
1U
b100 l
#2760000
0"
0U
#2765000
1"
1U
b101 l
#2770000
0"
0U
#2775000
1"
1U
b110 l
#2780000
0"
0U
